# setting LC_ALL to "C"
# --> Including file '/afs/cern.ch/work/c/cattanem/private/cmakeuser/LHCbDev_HEAD/Ex/IOExample/tests/options/CopyReco14Stripping20toROOTmdst.py'
# <-- End of file '/afs/cern.ch/work/c/cattanem/private/cmakeuser/LHCbDev_HEAD/Ex/IOExample/tests/options/CopyReco14Stripping20toROOTmdst.py'
# applying configuration of IOTest
# /***** User IOTest/IOTest **************************************************************************
# |-KillDAQ     = True  (default: False)
# |-DataContent = 'MDST'  (default: 'DST')
# |-DataType    = '2011'
# |-LoadAll     = True  (default: False)
# |-EvtMax      = 5  (default: -1)
# |-WithMC      = False
# \----- (End of User IOTest/IOTest) -----------------------------------------------------------------
# skipping configuration of DstConf
# skipping configuration of DigiConf
# skipping configuration of CaloDstPackConf
# skipping configuration of SimConf
# skipping configuration of CaloDstUnPackConf
ApplicationMgr    SUCCESS
====================================================================================================================================
                                                   Welcome to LHCbDev version HEAD
                                          running on mcat.cern.ch on Mon Oct 26 15:34:21 2015
====================================================================================================================================
ApplicationMgr       INFO Application Manager Configured successfully
TESFingerPrint      DEBUG Property update for OutputLevel : new value = 1
TESFingerPrint      DEBUG Property update for OutputLevel : new value = 1
TESFingerPrint    VERBOSE ServiceLocatorHelper::service: found service AlgContextSvc
TESFingerPrint      DEBUG Initialize base class GaudiCommon<Algorithm>
TESFingerPrint      DEBUG could not locate CounterSummarySvc, no counter summary will be made
TESFingerPrint      DEBUG List of ALL properties of TESFingerPrint/TESFingerPrint  #properties = 34
TESFingerPrint      DEBUG Property ['Name': Value] =  'OutputFileName':tes_finger_print.dat
TESFingerPrint      DEBUG Property ['Name': Value] =  'HeuristicsLevel':Medium
TESFingerPrint      DEBUG Property ['Name': Value] =  'RequireObjects':[  ]
TESFingerPrint      DEBUG Property ['Name': Value] =  'VetoObjects':[  ]
TESFingerPrint      DEBUG Property ['Name': Value] =  'StatEntityList':[  ]
TESFingerPrint      DEBUG Property ['Name': Value] =  'CounterList':[ '.*' ]
TESFingerPrint      DEBUG Property ['Name': Value] =  'UseEfficiencyRowFormat':True
TESFingerPrint      DEBUG Property ['Name': Value] =  'EfficiencyRowFormat': |*%|-48.48s|%|50t||%|10d| |%|11.5g| |(%|#9.6g| +- %|-#9.6g|)%%|   -------   |   -------   |
TESFingerPrint      DEBUG Property ['Name': Value] =  'RegularRowFormat': | %|-48.48s|%|50t||%|10d| |%|11.7g| |%|#11.5g| |%|#11.5g| |%|#12.5g| |%|#12.5g| |
TESFingerPrint      DEBUG Property ['Name': Value] =  'StatTableHeader': |    Counter                                      |     #     |    sum     | mean/eff^* | rms/err^*  |     min     |     max     |
TESFingerPrint      DEBUG Property ['Name': Value] =  'GlobalTimeOffset':0.0000000
TESFingerPrint      DEBUG Property ['Name': Value] =  'RootOnTES':
TESFingerPrint      DEBUG Property ['Name': Value] =  'RootInTES':
TESFingerPrint      DEBUG Property ['Name': Value] =  'Context':
TESFingerPrint      DEBUG Property ['Name': Value] =  'TypePrint':True
TESFingerPrint      DEBUG Property ['Name': Value] =  'StatPrint':True
TESFingerPrint      DEBUG Property ['Name': Value] =  'PropertiesPrint':False
TESFingerPrint      DEBUG Property ['Name': Value] =  'ErrorsPrint':True
TESFingerPrint      DEBUG Property ['Name': Value] =  'RegisterForContextService':True
TESFingerPrint      DEBUG Property ['Name': Value] =  'MonitorService':MonitorSvc
TESFingerPrint      DEBUG Property ['Name': Value] =  'AuditStop':False
TESFingerPrint      DEBUG Property ['Name': Value] =  'AuditStart':False
TESFingerPrint      DEBUG Property ['Name': Value] =  'AuditEndRun':False
TESFingerPrint      DEBUG Property ['Name': Value] =  'AuditBeginRun':False
TESFingerPrint      DEBUG Property ['Name': Value] =  'AuditFinalize':False
TESFingerPrint      DEBUG Property ['Name': Value] =  'AuditExecute':False
TESFingerPrint      DEBUG Property ['Name': Value] =  'AuditRestart':False
TESFingerPrint      DEBUG Property ['Name': Value] =  'AuditReinitialize':False
TESFingerPrint      DEBUG Property ['Name': Value] =  'AuditInitialize':False
TESFingerPrint      DEBUG Property ['Name': Value] =  'AuditAlgorithms':False
TESFingerPrint      DEBUG Property ['Name': Value] =  'ErrorCounter':0
TESFingerPrint      DEBUG Property ['Name': Value] =  'ErrorMax':1
TESFingerPrint      DEBUG Property ['Name': Value] =  'Enable':True
TESFingerPrint      DEBUG Property ['Name': Value] =  'OutputLevel':1
TESFingerPrint      DEBUG ==> Initialize
TESFingerPrint    VERBOSE ServiceLocatorHelper::service: found service ToolSvc
EventPersistenc...   INFO Added successfully Conversion service:RootCnvSvc
InputCopyStream      INFO Data source: EventDataSvc output: DATAFILE='PFN:Reco14-Stripping20.mdst' SVC='RootCnvSvc' OPT='REC'
FileRecordPersi...   INFO Added successfully Conversion service:FileRecordCnvSvc
FSRInputCopyStream   INFO Data source: FileRecordDataSvc output: DATAFILE='PFN:Reco14-Stripping20.mdst' SVC='FileRecordCnvSvc' OPT='REC'
EventSelector        INFO Stream:EventSelector.DataStreamTool_1 Def:DATAFILE='PFN:root://eoslhcb.cern.ch//eos/lhcb/grid/prod/lhcb/swtest/lhcb/LHCb/Collision12/BHADRON.MDST/00020198/0000/00020198_00000758_1.bhadron.mdst' SVC='Gaudi::RootEvtSelector' OPT='READ'
HistogramPersis...WARNING Histograms saving not required.
ApplicationMgr       INFO Application Manager Initialized successfully
ApplicationMgr       INFO Application Manager Started successfully
TESFingerPrint      DEBUG Property update for OutputLevel : new value = 1
EventSelector     SUCCESS Reading Event record 1. Record number within stream 1: 1
PrintHeader       WARNING PrintHeader:: No ODIN Header StatusCode=FAILURE
StoreExplorerAlg     INFO ========= /Event[0x8433270@EventDataSvc]:
StoreExplorerAlg     INFO +--> /Event [Address: CLID=0x1 Type=0x2]  DataObject
StoreExplorerAlg     INFO | +--> /Rec [Address: CLID=0x1 Type=0x2]  DataObject
StoreExplorerAlg     INFO | | +--> /Header [Address: CLID=0x69 Type=0x2]  LHCb::RecHeader
StoreExplorerAlg     INFO | | +--> /Status [Address: CLID=0x1389 Type=0x2]  LHCb::ProcStatus
StoreExplorerAlg     INFO | | +--> /Summary [Address: CLID=0x6a Type=0x2]  LHCb::RecSummary
StoreExplorerAlg     INFO | +--> /Trigger [Address: CLID=0x1 Type=0x2]  DataObject
StoreExplorerAlg     INFO | | +--> /RawEvent [Address: CLID=0x3ea Type=0x2]  LHCb::RawEvent
StoreExplorerAlg     INFO | +--> /Strip [Address: CLID=0x1 Type=0x2]  DataObject
StoreExplorerAlg     INFO | | +--> /pPhys [Address: CLID=0x1 Type=0x2]  DataObject
StoreExplorerAlg     INFO | |   +--> /DecReports [Address: CLID=0x617 Type=0x2]  LHCb::PackedDecReport
StoreExplorerAlg     INFO   +--> /Bhadron [Address: CLID=0x1 Type=0x2]  DataObject
StoreExplorerAlg     INFO   | +--> /pRec [Address: CLID=0x1 Type=0x2]  DataObject
StoreExplorerAlg     INFO   | | +--> /Track [Address: CLID=0x1 Type=0x2]  DataObject
StoreExplorerAlg     INFO   | | | +--> /Clusters [Address: CLID=0x604 Type=0x2]  LHCb::PackedClusters
StoreExplorerAlg     INFO   | | | +--> /Best [Address: CLID=0x60e Type=0x2]  LHCb::PackedTracks
StoreExplorerAlg     INFO   | | | +--> /Muon [Address: CLID=0x60e Type=0x2]  LHCb::PackedTracks
StoreExplorerAlg     INFO   | | +--> /ProtoP [Address: CLID=0x1 Type=0x2]  DataObject
StoreExplorerAlg     INFO   | | | +--> /Charged [Address: CLID=0x610 Type=0x2]  LHCb::PackedProtoParticles
StoreExplorerAlg     INFO   | | | +--> /Neutrals [Address: CLID=0x610 Type=0x2]  LHCb::PackedProtoParticles
StoreExplorerAlg     INFO   | | +--> /Calo [Address: CLID=0x1 Type=0x2]  DataObject
StoreExplorerAlg     INFO   | | | +--> /Electrons [Address: CLID=0x60f Type=0x2]  LHCb::PackedCaloHypos
StoreExplorerAlg     INFO   | | | +--> /Photons [Address: CLID=0x60f Type=0x2]  LHCb::PackedCaloHypos
StoreExplorerAlg     INFO   | | | +--> /EcalClusters [Address: CLID=0x605 Type=0x2]  LHCb::PackedCaloClusters
StoreExplorerAlg     INFO   | | +--> /Rich [Address: CLID=0x1 Type=0x2]  DataObject
StoreExplorerAlg     INFO   | | | +--> /PIDs [Address: CLID=0x619 Type=0x2]  LHCb::PackedRichPIDs
StoreExplorerAlg     INFO   | | +--> /Muon [Address: CLID=0x1 Type=0x2]  DataObject
StoreExplorerAlg     INFO   | | | +--> /MuonPID [Address: CLID=0x623 Type=0x2]  LHCb::PackedMuonPIDs
StoreExplorerAlg     INFO   | | +--> /Vertex [Address: CLID=0x1 Type=0x2]  DataObject
StoreExplorerAlg     INFO   | |   +--> /Primary [Address: CLID=0x611 Type=0x2]  LHCb::PackedRecVertices
StoreExplorerAlg     INFO     +--> /pPhys [Address: CLID=0x1 Type=0x2]  DataObject
StoreExplorerAlg     INFO     | +--> /Particles [Address: CLID=0x62d Type=0x2]  LHCb::PackedParticles
StoreExplorerAlg     INFO     | +--> /Vertices [Address: CLID=0x62e Type=0x2]  LHCb::PackedVertices
StoreExplorerAlg     INFO     | +--> /RecVertices [Address: CLID=0x611 Type=0x2]  LHCb::PackedRecVertices
StoreExplorerAlg     INFO       +--> /Relations [Address: CLID=0x618 Type=0x2]  LHCb::PackedRelations
TESFingerPrint      DEBUG ==> Execute
EventSelector     SUCCESS Reading Event record 2. Record number within stream 1: 2
PrintHeader       WARNING PrintHeader:: No ODIN Header StatusCode=FAILURE
StoreExplorerAlg     INFO ========= /Event[0x87c2940@EventDataSvc]:
StoreExplorerAlg     INFO +--> /Event [Address: CLID=0x1 Type=0x2]  DataObject
StoreExplorerAlg     INFO | +--> /Rec [Address: CLID=0x1 Type=0x2]  DataObject
StoreExplorerAlg     INFO | | +--> /Header [Address: CLID=0x69 Type=0x2]  LHCb::RecHeader
StoreExplorerAlg     INFO | | +--> /Status [Address: CLID=0x1389 Type=0x2]  LHCb::ProcStatus
StoreExplorerAlg     INFO | | +--> /Summary [Address: CLID=0x6a Type=0x2]  LHCb::RecSummary
StoreExplorerAlg     INFO | +--> /Trigger [Address: CLID=0x1 Type=0x2]  DataObject
StoreExplorerAlg     INFO | | +--> /RawEvent [Address: CLID=0x3ea Type=0x2]  LHCb::RawEvent
StoreExplorerAlg     INFO | +--> /Strip [Address: CLID=0x1 Type=0x2]  DataObject
StoreExplorerAlg     INFO | | +--> /pPhys [Address: CLID=0x1 Type=0x2]  DataObject
StoreExplorerAlg     INFO | |   +--> /DecReports [Address: CLID=0x617 Type=0x2]  LHCb::PackedDecReport
StoreExplorerAlg     INFO   +--> /Bhadron [Address: CLID=0x1 Type=0x2]  DataObject
StoreExplorerAlg     INFO   | +--> /pRec [Address: CLID=0x1 Type=0x2]  DataObject
StoreExplorerAlg     INFO   | | +--> /Track [Address: CLID=0x1 Type=0x2]  DataObject
StoreExplorerAlg     INFO   | | | +--> /Clusters [Address: CLID=0x604 Type=0x2]  LHCb::PackedClusters
StoreExplorerAlg     INFO   | | | +--> /Best [Address: CLID=0x60e Type=0x2]  LHCb::PackedTracks
StoreExplorerAlg     INFO   | | +--> /ProtoP [Address: CLID=0x1 Type=0x2]  DataObject
StoreExplorerAlg     INFO   | | | +--> /Charged [Address: CLID=0x610 Type=0x2]  LHCb::PackedProtoParticles
StoreExplorerAlg     INFO   | | | +--> /Neutrals [Address: CLID=0x610 Type=0x2]  LHCb::PackedProtoParticles
StoreExplorerAlg     INFO   | | +--> /Calo [Address: CLID=0x1 Type=0x2]  DataObject
StoreExplorerAlg     INFO   | | | +--> /Electrons [Address: CLID=0x60f Type=0x2]  LHCb::PackedCaloHypos
StoreExplorerAlg     INFO   | | | +--> /Photons [Address: CLID=0x60f Type=0x2]  LHCb::PackedCaloHypos
StoreExplorerAlg     INFO   | | | +--> /EcalClusters [Address: CLID=0x605 Type=0x2]  LHCb::PackedCaloClusters
StoreExplorerAlg     INFO   | | +--> /Rich [Address: CLID=0x1 Type=0x2]  DataObject
StoreExplorerAlg     INFO   | | | +--> /PIDs [Address: CLID=0x619 Type=0x2]  LHCb::PackedRichPIDs
StoreExplorerAlg     INFO   | | +--> /Muon [Address: CLID=0x1 Type=0x2]  DataObject
StoreExplorerAlg     INFO   | | | +--> /MuonPID [Address: CLID=0x623 Type=0x2]  LHCb::PackedMuonPIDs
StoreExplorerAlg     INFO   | | +--> /Vertex [Address: CLID=0x1 Type=0x2]  DataObject
StoreExplorerAlg     INFO   | |   +--> /Primary [Address: CLID=0x611 Type=0x2]  LHCb::PackedRecVertices
StoreExplorerAlg     INFO     +--> /pPhys [Address: CLID=0x1 Type=0x2]  DataObject
StoreExplorerAlg     INFO     | +--> /Particles [Address: CLID=0x62d Type=0x2]  LHCb::PackedParticles
StoreExplorerAlg     INFO     | +--> /Vertices [Address: CLID=0x62e Type=0x2]  LHCb::PackedVertices
StoreExplorerAlg     INFO     | +--> /RecVertices [Address: CLID=0x611 Type=0x2]  LHCb::PackedRecVertices
StoreExplorerAlg     INFO       +--> /Relations [Address: CLID=0x618 Type=0x2]  LHCb::PackedRelations
TESFingerPrint      DEBUG ==> Execute
EventSelector     SUCCESS Reading Event record 3. Record number within stream 1: 3
PrintHeader       WARNING PrintHeader:: No ODIN Header StatusCode=FAILURE
StoreExplorerAlg     INFO ========= /Event[0x81fb3b0@EventDataSvc]:
StoreExplorerAlg     INFO +--> /Event [Address: CLID=0x1 Type=0x2]  DataObject
StoreExplorerAlg     INFO | +--> /Rec [Address: CLID=0x1 Type=0x2]  DataObject
StoreExplorerAlg     INFO | | +--> /Header [Address: CLID=0x69 Type=0x2]  LHCb::RecHeader
StoreExplorerAlg     INFO | | +--> /Status [Address: CLID=0x1389 Type=0x2]  LHCb::ProcStatus
StoreExplorerAlg     INFO | | +--> /Summary [Address: CLID=0x6a Type=0x2]  LHCb::RecSummary
StoreExplorerAlg     INFO | +--> /Trigger [Address: CLID=0x1 Type=0x2]  DataObject
StoreExplorerAlg     INFO | | +--> /RawEvent [Address: CLID=0x3ea Type=0x2]  LHCb::RawEvent
StoreExplorerAlg     INFO | +--> /Strip [Address: CLID=0x1 Type=0x2]  DataObject
StoreExplorerAlg     INFO | | +--> /pPhys [Address: CLID=0x1 Type=0x2]  DataObject
StoreExplorerAlg     INFO | |   +--> /DecReports [Address: CLID=0x617 Type=0x2]  LHCb::PackedDecReport
StoreExplorerAlg     INFO   +--> /Bhadron [Address: CLID=0x1 Type=0x2]  DataObject
StoreExplorerAlg     INFO   | +--> /pRec [Address: CLID=0x1 Type=0x2]  DataObject
StoreExplorerAlg     INFO   | | +--> /Track [Address: CLID=0x1 Type=0x2]  DataObject
StoreExplorerAlg     INFO   | | | +--> /Clusters [Address: CLID=0x604 Type=0x2]  LHCb::PackedClusters
StoreExplorerAlg     INFO   | | | +--> /Best [Address: CLID=0x60e Type=0x2]  LHCb::PackedTracks
StoreExplorerAlg     INFO   | | +--> /ProtoP [Address: CLID=0x1 Type=0x2]  DataObject
StoreExplorerAlg     INFO   | | | +--> /Charged [Address: CLID=0x610 Type=0x2]  LHCb::PackedProtoParticles
StoreExplorerAlg     INFO   | | | +--> /Neutrals [Address: CLID=0x610 Type=0x2]  LHCb::PackedProtoParticles
StoreExplorerAlg     INFO   | | +--> /Calo [Address: CLID=0x1 Type=0x2]  DataObject
StoreExplorerAlg     INFO   | | | +--> /Electrons [Address: CLID=0x60f Type=0x2]  LHCb::PackedCaloHypos
StoreExplorerAlg     INFO   | | | +--> /Photons [Address: CLID=0x60f Type=0x2]  LHCb::PackedCaloHypos
StoreExplorerAlg     INFO   | | | +--> /EcalClusters [Address: CLID=0x605 Type=0x2]  LHCb::PackedCaloClusters
StoreExplorerAlg     INFO   | | +--> /Rich [Address: CLID=0x1 Type=0x2]  DataObject
StoreExplorerAlg     INFO   | | | +--> /PIDs [Address: CLID=0x619 Type=0x2]  LHCb::PackedRichPIDs
StoreExplorerAlg     INFO   | | +--> /Muon [Address: CLID=0x1 Type=0x2]  DataObject
StoreExplorerAlg     INFO   | | | +--> /MuonPID [Address: CLID=0x623 Type=0x2]  LHCb::PackedMuonPIDs
StoreExplorerAlg     INFO   | | +--> /Vertex [Address: CLID=0x1 Type=0x2]  DataObject
StoreExplorerAlg     INFO   | |   +--> /Primary [Address: CLID=0x611 Type=0x2]  LHCb::PackedRecVertices
StoreExplorerAlg     INFO     +--> /pPhys [Address: CLID=0x1 Type=0x2]  DataObject
StoreExplorerAlg     INFO     | +--> /Particles [Address: CLID=0x62d Type=0x2]  LHCb::PackedParticles
StoreExplorerAlg     INFO     | +--> /Vertices [Address: CLID=0x62e Type=0x2]  LHCb::PackedVertices
StoreExplorerAlg     INFO     | +--> /RecVertices [Address: CLID=0x611 Type=0x2]  LHCb::PackedRecVertices
StoreExplorerAlg     INFO       +--> /Relations [Address: CLID=0x618 Type=0x2]  LHCb::PackedRelations
TESFingerPrint      DEBUG ==> Execute
EventSelector     SUCCESS Reading Event record 4. Record number within stream 1: 4
PrintHeader       WARNING PrintHeader:: No ODIN Header StatusCode=FAILURE
StoreExplorerAlg     INFO ========= /Event[0xb1624c0@EventDataSvc]:
StoreExplorerAlg     INFO +--> /Event [Address: CLID=0x1 Type=0x2]  DataObject
StoreExplorerAlg     INFO | +--> /Rec [Address: CLID=0x1 Type=0x2]  DataObject
StoreExplorerAlg     INFO | | +--> /Header [Address: CLID=0x69 Type=0x2]  LHCb::RecHeader
StoreExplorerAlg     INFO | | +--> /Status [Address: CLID=0x1389 Type=0x2]  LHCb::ProcStatus
StoreExplorerAlg     INFO | | +--> /Summary [Address: CLID=0x6a Type=0x2]  LHCb::RecSummary
StoreExplorerAlg     INFO | +--> /Trigger [Address: CLID=0x1 Type=0x2]  DataObject
StoreExplorerAlg     INFO | | +--> /RawEvent [Address: CLID=0x3ea Type=0x2]  LHCb::RawEvent
StoreExplorerAlg     INFO | +--> /Strip [Address: CLID=0x1 Type=0x2]  DataObject
StoreExplorerAlg     INFO | | +--> /pPhys [Address: CLID=0x1 Type=0x2]  DataObject
StoreExplorerAlg     INFO | |   +--> /DecReports [Address: CLID=0x617 Type=0x2]  LHCb::PackedDecReport
StoreExplorerAlg     INFO   +--> /Bhadron [Address: CLID=0x1 Type=0x2]  DataObject
StoreExplorerAlg     INFO   | +--> /pRec [Address: CLID=0x1 Type=0x2]  DataObject
StoreExplorerAlg     INFO   | | +--> /Track [Address: CLID=0x1 Type=0x2]  DataObject
StoreExplorerAlg     INFO   | | | +--> /Clusters [Address: CLID=0x604 Type=0x2]  LHCb::PackedClusters
StoreExplorerAlg     INFO   | | | +--> /Best [Address: CLID=0x60e Type=0x2]  LHCb::PackedTracks
StoreExplorerAlg     INFO   | | +--> /ProtoP [Address: CLID=0x1 Type=0x2]  DataObject
StoreExplorerAlg     INFO   | | | +--> /Charged [Address: CLID=0x610 Type=0x2]  LHCb::PackedProtoParticles
StoreExplorerAlg     INFO   | | | +--> /Neutrals [Address: CLID=0x610 Type=0x2]  LHCb::PackedProtoParticles
StoreExplorerAlg     INFO   | | +--> /Calo [Address: CLID=0x1 Type=0x2]  DataObject
StoreExplorerAlg     INFO   | | | +--> /Electrons [Address: CLID=0x60f Type=0x2]  LHCb::PackedCaloHypos
StoreExplorerAlg     INFO   | | | +--> /Photons [Address: CLID=0x60f Type=0x2]  LHCb::PackedCaloHypos
StoreExplorerAlg     INFO   | | | +--> /EcalClusters [Address: CLID=0x605 Type=0x2]  LHCb::PackedCaloClusters
StoreExplorerAlg     INFO   | | +--> /Rich [Address: CLID=0x1 Type=0x2]  DataObject
StoreExplorerAlg     INFO   | | | +--> /PIDs [Address: CLID=0x619 Type=0x2]  LHCb::PackedRichPIDs
StoreExplorerAlg     INFO   | | +--> /Muon [Address: CLID=0x1 Type=0x2]  DataObject
StoreExplorerAlg     INFO   | | | +--> /MuonPID [Address: CLID=0x623 Type=0x2]  LHCb::PackedMuonPIDs
StoreExplorerAlg     INFO   | | +--> /Vertex [Address: CLID=0x1 Type=0x2]  DataObject
StoreExplorerAlg     INFO   | |   +--> /Primary [Address: CLID=0x611 Type=0x2]  LHCb::PackedRecVertices
StoreExplorerAlg     INFO     +--> /pPhys [Address: CLID=0x1 Type=0x2]  DataObject
StoreExplorerAlg     INFO     | +--> /Particles [Address: CLID=0x62d Type=0x2]  LHCb::PackedParticles
StoreExplorerAlg     INFO     | +--> /Vertices [Address: CLID=0x62e Type=0x2]  LHCb::PackedVertices
StoreExplorerAlg     INFO     | +--> /RecVertices [Address: CLID=0x611 Type=0x2]  LHCb::PackedRecVertices
StoreExplorerAlg     INFO       +--> /Relations [Address: CLID=0x618 Type=0x2]  LHCb::PackedRelations
TESFingerPrint      DEBUG ==> Execute
EventSelector     SUCCESS Reading Event record 5. Record number within stream 1: 5
PrintHeader       WARNING PrintHeader:: No ODIN Header StatusCode=FAILURE
StoreExplorerAlg     INFO ========= /Event[0x81f2460@EventDataSvc]:
StoreExplorerAlg     INFO +--> /Event [Address: CLID=0x1 Type=0x2]  DataObject
StoreExplorerAlg     INFO | +--> /Rec [Address: CLID=0x1 Type=0x2]  DataObject
StoreExplorerAlg     INFO | | +--> /Header [Address: CLID=0x69 Type=0x2]  LHCb::RecHeader
StoreExplorerAlg     INFO | | +--> /Status [Address: CLID=0x1389 Type=0x2]  LHCb::ProcStatus
StoreExplorerAlg     INFO | | +--> /Summary [Address: CLID=0x6a Type=0x2]  LHCb::RecSummary
StoreExplorerAlg     INFO | +--> /Trigger [Address: CLID=0x1 Type=0x2]  DataObject
StoreExplorerAlg     INFO | | +--> /RawEvent [Address: CLID=0x3ea Type=0x2]  LHCb::RawEvent
StoreExplorerAlg     INFO | +--> /Strip [Address: CLID=0x1 Type=0x2]  DataObject
StoreExplorerAlg     INFO | | +--> /pPhys [Address: CLID=0x1 Type=0x2]  DataObject
StoreExplorerAlg     INFO | |   +--> /DecReports [Address: CLID=0x617 Type=0x2]  LHCb::PackedDecReport
StoreExplorerAlg     INFO   +--> /Bhadron [Address: CLID=0x1 Type=0x2]  DataObject
StoreExplorerAlg     INFO   | +--> /pRec [Address: CLID=0x1 Type=0x2]  DataObject
StoreExplorerAlg     INFO   | | +--> /Track [Address: CLID=0x1 Type=0x2]  DataObject
StoreExplorerAlg     INFO   | | | +--> /Clusters [Address: CLID=0x604 Type=0x2]  LHCb::PackedClusters
StoreExplorerAlg     INFO   | | | +--> /Best [Address: CLID=0x60e Type=0x2]  LHCb::PackedTracks
StoreExplorerAlg     INFO   | | | +--> /Muon [Address: CLID=0x60e Type=0x2]  LHCb::PackedTracks
StoreExplorerAlg     INFO   | | +--> /ProtoP [Address: CLID=0x1 Type=0x2]  DataObject
StoreExplorerAlg     INFO   | | | +--> /Charged [Address: CLID=0x610 Type=0x2]  LHCb::PackedProtoParticles
StoreExplorerAlg     INFO   | | +--> /Calo [Address: CLID=0x1 Type=0x2]  DataObject
StoreExplorerAlg     INFO   | | | +--> /Electrons [Address: CLID=0x60f Type=0x2]  LHCb::PackedCaloHypos
StoreExplorerAlg     INFO   | | | +--> /Photons [Address: CLID=0x60f Type=0x2]  LHCb::PackedCaloHypos
StoreExplorerAlg     INFO   | | | +--> /EcalClusters [Address: CLID=0x605 Type=0x2]  LHCb::PackedCaloClusters
StoreExplorerAlg     INFO   | | +--> /Rich [Address: CLID=0x1 Type=0x2]  DataObject
StoreExplorerAlg     INFO   | | | +--> /PIDs [Address: CLID=0x619 Type=0x2]  LHCb::PackedRichPIDs
StoreExplorerAlg     INFO   | | +--> /Muon [Address: CLID=0x1 Type=0x2]  DataObject
StoreExplorerAlg     INFO   | | | +--> /MuonPID [Address: CLID=0x623 Type=0x2]  LHCb::PackedMuonPIDs
StoreExplorerAlg     INFO   | | +--> /Vertex [Address: CLID=0x1 Type=0x2]  DataObject
StoreExplorerAlg     INFO   | |   +--> /Primary [Address: CLID=0x611 Type=0x2]  LHCb::PackedRecVertices
StoreExplorerAlg     INFO     +--> /pPhys [Address: CLID=0x1 Type=0x2]  DataObject
StoreExplorerAlg     INFO     | +--> /Particles [Address: CLID=0x62d Type=0x2]  LHCb::PackedParticles
StoreExplorerAlg     INFO     | +--> /Vertices [Address: CLID=0x62e Type=0x2]  LHCb::PackedVertices
StoreExplorerAlg     INFO     | +--> /RecVertices [Address: CLID=0x611 Type=0x2]  LHCb::PackedRecVertices
StoreExplorerAlg     INFO       +--> /Relations [Address: CLID=0x618 Type=0x2]  LHCb::PackedRelations
TESFingerPrint      DEBUG ==> Execute
TESFingerPrint      DEBUG Property update for OutputLevel : new value = 1
ApplicationMgr       INFO Application Manager Stopped successfully
PrintHeader          INFO Filtered 5 events
PrintHeader       SUCCESS Exceptions/Errors/Warnings/Infos Statistics : 0/0/1/0
PrintHeader       SUCCESS  #WARNINGS   = 5        Message = 'No ODIN Header'
TESFingerPrint      DEBUG ==> Finalize
TESFingerPrint    VERBOSE ==> TES DataObject statistics: {/Event: 5, /Event/Bhadron: 5, /Event/Bhadron/pPhys: 5, /Event/Bhadron/pPhys/Particles: 5, /Event/Bhadron/pPhys/RecVertices: 5, /Event/Bhadron/pPhys/Relations: 5, /Event/Bhadron/pPhys/Vertices: 5, /Event/Bhadron/pRec: 5, /Event/Bhadron/pRec/Calo: 5, /Event/Bhadron/pRec/Calo/EcalClusters: 5, /Event/Bhadron/pRec/Calo/Electrons: 5, /Event/Bhadron/pRec/Calo/Photons: 5, /Event/Bhadron/pRec/Muon: 5, /Event/Bhadron/pRec/Muon/MuonPID: 5, /Event/Bhadron/pRec/ProtoP: 5, /Event/Bhadron/pRec/ProtoP/Charged: 5, /Event/Bhadron/pRec/ProtoP/Neutrals: 4, /Event/Bhadron/pRec/Rich: 5, /Event/Bhadron/pRec/Rich/PIDs: 5, /Event/Bhadron/pRec/Track: 5, /Event/Bhadron/pRec/Track/Best: 5, /Event/Bhadron/pRec/Track/Clusters: 5, /Event/Bhadron/pRec/Track/Muon: 2, /Event/Bhadron/pRec/Vertex: 5, /Event/Bhadron/pRec/Vertex/Primary: 5, /Event/Rec: 5, /Event/Rec/Header: 5, /Event/Rec/Status: 5, /Event/Rec/Summary: 5, /Event/Strip: 5, /Event/Strip/pPhys: 5, /Event/Strip/pPhys/DecReports: 5, /Event/Trigger: 5, /Event/Trigger/RawEvent: 5}
TESFingerPrint    VERBOSE ==> TES Container sizes: {}
TESFingerPrint      DEBUG Finalize base class GaudiAlgorithm
TESFingerPrint      DEBUG Tools to release :
TESFingerPrint      DEBUG Services to release :
InputCopyStream      INFO Events output: 5
FSRInputCopyStream   INFO Set up File Summary Record
FSRInputCopyStream   INFO Events output: 1
EventLoopMgr         INFO Histograms converted successfully according to request.
DataOnDemandSvc      INFO Handled "DataFault" incidents: 0/0/5(Alg/Node/Total).
ToolSvc              INFO Removing all tools created by ToolSvc
RootCnvSvc           INFO Disconnected data IO:C66232C0-5802-E211-9672-003048F1BFC2 [root://eoslhcb.cern.ch//eos/lhcb/grid/prod/lhcb/swtest/lhcb/LHCb/Collision12/BHADRON.MDST/00020198/0000/00020198_00000758_1.bhadron.mdst]
RootCnvSvc           INFO Disconnected data IO:EC4CC651-8A79-E511-B723-02163E008F18 [Reco14-Stripping20.mdst]
ApplicationMgr       INFO Application Manager Finalized successfully
ApplicationMgr       INFO Application Manager Terminated successfully
